<svg width="481px" height="141px" viewBox="0 0 481 141" version="1.1" xmlns="http://www.w3.org/2000/svg" xmlns:xlink="http://www.w3.org/1999/xlink">
    <title>logo</title>
    <g id="Page-1" stroke="none" stroke-width="1" fill="none" fill-rule="evenodd">
        <g id="logo">
            <polygon id="Path" fill="#000000" fill-rule="nonzero" points="449.07 0 439.45 17.24 431.09 32.2 370.93 140 0 140 0 0"></polygon>
            <polygon id="Path" points="0 140 479.92 140 479.92 140.01 0 140.01"></polygon>
            <text id="Peter’s" fill="#FFFFFF" fill-rule="nonzero" font-family="Helvetica" font-size="57" font-weight="normal">
                <tspan x="18.994" y="61.233">Peter</tspan>
                <tspan x="157.347027" y="61.233">’s</tspan>
            </text>
            <text id="Development" fill="#FFFFFF" fill-rule="nonzero" font-family="Helvetica" font-size="54" font-weight="normal">
                <tspan x="18.692" y="113.015">Development</tspan>
            </text>
            <path d="M383,106 L430.641493,30.2891506 L439,17 M371,127 L370.989783,127.008571 L363,139" id="Shape"></path>
            <path d="M439.76,16.76 L383.34,117.67 C370.82,106.84 362.89,90.85 362.89,73 C362.89,40.42 389.31,14 421.89,14 C428.12,14 434.13,14.97 439.76,16.76 Z" id="Path" fill="#0BB97E" fill-rule="nonzero"></path>
            <path d="M480.89,73 C480.89,105.58 454.47,132 421.89,132 C407.16,132 393.68,126.6 383.34,117.67 L439.76,16.76 C463.61,24.33 480.89,46.65 480.89,73 Z" id="Path" fill="#000000" fill-rule="nonzero"></path>
            <polyline id="Path" points="458 0 449.07 13.1162791 439.45 27.2490698 431.09 39.5127907 370.93 127.883721 370.92 127.891919 362 141"></polyline>
        </g>
        <text id="P" transform="translate(435.378477, 77.503042) rotate(29.000000) translate(-435.378477, -77.503042) " font-family="HoeflerText-Regular, Hoefler Text" font-size="75" font-weight="normal" fill="#3CD99F">
            <tspan x="412.878477" y="106.003042">P</tspan>
        </text>
    </g>
</svg>